Solutions | R for digital media analysis
…
Task 7

Create a new variable in which you store the mass in gram. Add it to the
data frame.

Solution:

starwars_data <- starwars_data %>%
  mutate(gr_mass = mass*1000)

starwars_data %>% 
  select(name, species, mass, gr_mass)

## # A tibble: 87 x 4
##    name               species  mass gr_mass
##    <chr>              <chr>   <dbl>   <dbl>
##  1 Luke Skywalker     Human      77   77000
##  2 C-3PO              Droid      75   75000
##  3 R2-D2              Droid      32   32000
##  4 Darth Vader        Human     136  136000
##  5 Leia Organa        Human      49   49000
##  6 Owen Lars          Human     120  120000
##  7 Beru Whitesun lars Human      75   75000
##  8 R5-D4              Droid      32   32000
##  9 Biggs Darklighter  Human      84   84000
## 10 Obi-Wan Kenobi     Human      77   77000
## # ... with 77 more rows
…
Next, investigate the tweet that scores highest on the document-topic
probabilities for Topic 1 and Topic 3. Do the tweets match your
interpretation of the topics?

# First, turn the lda model back into a tidy data frame and calculate the gamma scores:
tidy_lda2 <- tidy(lda, matrix = "gamma")

# Second, look at the tweets that have the highest probability for Topic 1 
tidy_lda2 %>%
  filter(topic == 1) %>% 
  arrange(desc(gamma))

## # A tibble: 28,979 x 3
##    document topic gamma
##    <chr>    <int> <dbl>
##  1 19066        1 0.984
##  2 19068        1 0.984
##  3 19191        1 0.984
##  4 19328        1 0.984
##  5 19330        1 0.984
##  6 19338        1 0.984
##  7 19339        1 0.984
##  8 19349        1 0.984
##  9 19350        1 0.984
## 10 19379        1 0.984
## # ... with 28,969 more rows
…
data_tknzd %>%
  select(tweet, text) %>% 
  filter(tweet == 9128) %>%
  filter(row_number()==1) %>%
  pull(text)

## [1] "Bitte keinen Kliemann content posten, sonst muss ich noch sein Insta anschauen und dat will ich ned.\n\nWirklich interessiert mich dieses Würstchen null."

# Third, look at the tweets that have the highest probability
tidy_lda2 %>%
  filter(topic == 3) %>% 
  arrange(desc(gamma))

## # A tibble: 28,979 x 3
##    document topic gamma
##    <chr>    <int> <dbl>
##  1 9559         3 0.981
##  2 16806        3 0.981
##  3 16812        3 0.981
##  4 16820        3 0.981
##  5 16837        3 0.981
##  6 16860        3 0.981
##  7 16865        3 0.981
##  8 16870        3 0.981
##  9 16871        3 0.981
## 10 16880        3 0.981
## # ... with 28,969 more rows
…
